concept_code,concept_name,concept_chapter,sub_chapter_n1
215,bacterie anaerobie nommement designee : rech. isolee,0,0
218,polynucleaires eosinophiles dans une secretion : rech isolee,0,0
219,culot urinaire cytologie urines avec etude des   cristaux,0,0
220,"debit urin. hematies et leucocytes par minute (addis, h.l.m,culot urin quant)",0,0
221,debit urin. hematies et leucocytes par millilitre (culot urin quant),0,0
236,isol. et/ou identif. d'une bacterie par pouvoir pathogene (animal),0,0
237,identif. d'une toxine bacterienne par techn. immunologique,0,0
238,identif. d'une toxine bacterienne : par pouvoir pathogene (animal),0,0
239,toxinotypie botulique,0,0
240,mycobacteries : examen microscopique,0,0
241,mycobacteries : cult. d'isol sur milieu solide (sauf a partir produit solide),0,0
242,mycobacteries : cult. d'isol sur milieu solide a partir d'un produit solide,0,0
243,mycobacteries : identification biochimique de mycobacterium tuberculosis,0,0
244,mycobacteries : identif. bioch autre que mycobacterium tuberculosis,0,0
246,spirochetes : rech. par ex. direct (color. ou if),0,0
247,spirochetes : isolement des leptospires par culture,0,0
248,spirochetes : isolement des leptospires par inocul. a animal,0,0
249,spirochetes : serotype d'un leptospire isole par culture,0,0
250,rickettsiales : ex. direct et isolement,0,0
252,ex. microbio. : isol et/ou ident levure autre que c albicans ou espece filam,0,0
253,ex. myco isole : identif de genre levures et champignons filamenteux,0,0
254,malassezia furfur (pityriasis versicolor),0,0
255,ex myco isole champignon exotique ex direct et culture,0,0
256,ex myco isole champignon exotique sur coupe d'organe,0,0
257,ex myco isole champignon exotique : inocul a animal et retroculture,0,0
259,ex. parasito. selles emises au labo (protozoaires),0,0
262,amibes : rech. dans mucus recueilli sous rectoscopie,0,0
263,oeufs d'helminthes  :marge de  l'anus (scotch test),0,0
264,larves d'anguillules (baermann) : recherche dans selles,0,0
266,oeufs de bilharzies : recherche,0,0
267,parasites : rech. et/ou identif. par ex. macro. et/ou micro.(demodex),0,0
268,parasites : ex. direct et/ou enrichissement sauf dans sang et selles,0,0
269,antibiogramme bacterie aerobie (sauf mycoplasme) (atb),0,0
270,antibiogramme bacterie anaerobie (sauf mycoplasme) (atb),0,0
271,"antibiogramme champignon (fongigramme) (atb , fg)",0,0
274,mycobacterie : sensibilite vis a vis d'un antibio par antibio,0,0
277,pouvoir bactericide des antibiotiques et assoc par antibiotique,0,0
280,ex. myco isole : identif.d'espece d'un champignon autre que c. albicans,0,0
1245,leptospiroses : serodiagnostic de depistage,0,0
1246,mycoplasmoses respiratoires : serodiagnostic : igg par eia,0,0
1247,mycoplasmoses respiratoires : serodiagnostic : igm par eia,0,0
1248,fievre q (coxiella burnetti) : serodiagnostic : titrage avec un antigene de phase ii (ifi),0,0
1249,fievre q chronique (coxiella burnetti) : serodiagnostic (igg et iga) avec un antigene de phase i et,0,0
1250,western  blot ou immuno blot ig g                    le biologiste  realise  systematiquement l'exam,0,0
1251,western blot ou immuno blot ig m  la prise en charge est limitee a la recherche chez  l'enfant d'un,0,0
1252,maladie des griffes du chat (bartonelloses-infections a bartonella henselae et bartonella quintana),0,0
1253,arboviroses (autres que les infections par les virus de la dengue ou du chikungunya) recherche de,0,0
1254,infection par le virus du chikungunya recherche des igm et des igg par eia a realiser uniquement e,0,0
1255,infection par les virus de la dengue - recherche des igg et des igm par eia a realiser uniquement,0,0
1256,test treponemique (tt) : recherche des ig  totaux par  eia la prise en charge de cet acte est limite,0,0
1257,"en cas d'acte 1256 positif, test non treponemique   (tnt) avec titrage  (vdrl, rpr, ..) si le test 1",0,0
1258,"en cas de suspicion de seroconversion,  nouveau tnt",0,0
1259,"en cas de suivi therapeutique, tnt avec  titrage :  examen precedent + examen iteratif la prise en c",0,0
1260,recherche d'anticorps anti-cmv recherche des igg et    des igm : dans les contextes suivants :  a)su,0,0
1261,"test de mesure d'avidite des igg chez la femme  enceinte, pour dater  l'infection, lors d'une  susp",0,0
1301,borreliose (lyme) : serodiagnostic de  depistage des anticorps totaux ou igg  et/ou igm (ifi ou eia,0,0
1302,borreliose (lyme) : serodiagnostic de controle (wb ou ripa ou immuno-transfert),0,0
1305,"brucelloses : serodiagnostic (wright,  rose bengale)",0,0
1307,serologie de chlamydia trachomatis (igg chez l'adulte ou igm chez le nouveau ne ou le nourrisson).,0,0
1308,infections pulmonaires a chlamydia  pneumoniae : serodiagnostic,0,0
1309,infections pulmonaires a chlamydia  psittaci : serodiagnostic,0,0
1310,infections a campylobacter :  serodiagnostic,0,0
1311,infections a helicobacter pylori :  serodiagnostic,0,0
1312,leptospiroses : serodiagnostic :  titrage par micro-agglutination-lyse au  moins 9 antigenes,0,0
1313,mycoplasmoses respiratoires :  serodiagnostic avec anticorps totaux  par rfc ou agg,0,0
1316,fievre q (coxiella burnetti) :  serodiagnostic de depistage avec un  antigene de phase ii (ifi),0,0
1317,"rickettsioses (rickettsia conorii,  rickettsia typhi) : serodiagnostic de  depistage (ifi)",0,0
1318,"rickettsioses (rickettsia conorii,  rickettsia typhi) : serodiagnostic :  titrage sur au moins 2 an",0,0
1319,salmonelloses : sd (tab ou widal et felix),0,0
1323,streptococcies : une anti-enzyme  streptococcique,0,0
1324,streptococcies : anti-enzymes streptococciques (2 ou plusieurs),0,0
1326,syphilis : serodiagnostic de depistage,0,0
1327,syphilis : serodiagnostic : titrages,0,0
1330,recherche des ig m chez l'enfant par eia la prise en    charge de l'acte 1330 est limitee a la  rech,0,0
1331,maladie des griffes du chat  (bartonelloses-infections a bartonella  henselae et bartonella quintan,0,0
1332,tetanos : serodiagnostic par eia,0,0
1333,tularemie : serodiagnostic par agg,0,0
1334,yersinioses : serodiagnostic avec 1  seul antigene (agg ou rfc),0,0
1335,yersinioses : serodiagnostic avec trois  antigenes et plus (agg ou rfc),0,0
1336,legionelloses : serodiagnostic de  depistage,0,0
1337,legionelloses : serodiagnostic :  titrage avec six antigenes et plus,0,0
1339,coqueluche : diagnostic des anticorps antitoxines de bordetella pertussis par technique d'immuno-em,0,0
1374,vitamine b 12,0,0
1376,ciclosporine apres chromatographie (sandimmun) (sang),0,0
1377,"dosage d'un autre immunosuppresseur (tacrolimus,   sirolimus, everolimus...)",0,0
1385,iga + igg + igm. l'examen 1385 peut etre effectue et   cote a l'initiative du directeur de laboratoi,0,0
1387,folates seriques ou erythrocytaires. une seule   cotation par patient.,0,0
1392,"immunoglobulines igg1, igg2, igg3, igg4 : 1 parametre : dosage",0,0
1393,"immunoglobulines igg1, igg2, igg3, igg4 : 2 parametres : dosage",0,0
1394,"immunoglobulines igg1, igg2, igg3, igg4, 3 parametres ou plus : dosages",0,0
1414,test au xylose comprenant un minimum de deux dosages sanguins. le compte rendu devra preciser l'ex,0,0
1415,"determination de la clairance de l'alpha 1 antitrypsine, par determination des concentrations seri",0,0
1416,dosage de l'alpha 1 antitrypsine  fecale. le laboratoire qui execute l'acte devra systematiquement,0,0
1417,examen microscopique direct et apres coloration permettant d'identifier les differentes categories,0,0
1418,dosage de l'azote fecal soluble.,0,0
1419,determination electrometrique du ph.,0,0
1420,"recherche d'anticorps specifiques anti-toxoplasma  dans le cadre du depistage, du diagnostic et de l",0,0
1421,deuxieme prelevement pour confirmation ou etude de la  cinetique des igg a realiser dans les cas sui,0,0
1422,toxoplasmose cas general : suivi : sd de surveillance  (2 isotypes differents),0,0
1423,toxoplasmose cas general : suivi : sd de controle (2  serums en parallele),0,0
1424,toxoplasmose cas general : culture cellulaire,0,0
1425,toxoplasmose cas general :  inoculation souris,0,0
1426,toxoplasmose cas general : culture et inoculation,0,0
1427,test de confirmation par immuno-empreinte. en  presence de resultats equivoques d'igg   anti-toxopl,0,0
1428,test de confirmation par une autre  technique.  en  presence de resultats equivoques ou  positifs d',0,0
1430,toxoplasmose grossesse : depistage : sd initial (2  isotypes differents),0,0
1431,toxoplasmose grossesse : depistage : controle du sd  initial sur autre prel.,0,0
1432,toxoplasmose grossesse : suivi : sd de surveillance  (2 isotypes differents),0,0
1433,toxoplasmose grossesse : suivi : sd de controle (2  serums en parallele),0,0
1434,toxoplasmose grossesse : culture cellulaire,0,0
1435,toxoplasmose grossesse : inoculation souris,0,0
1436,toxoplasmose grossesse : culture et inoculation,0,0
1437,toxoplasmose nouveau-ne : sd de surveillance par  plus. techn.,0,0
1438,chez la femme enceinte test de mesure d'avidite des  igg  anti-toxoplasma pour dater l'infection lor,0,0
1439,"lors d'une suspicion de toxoplasmose  congenitale  (nouveau-ne, enfant de moins  de un an) ou en cas",0,0
1451,mai nso:f. rhumatoides groupe 1 : ig animales (waaler-rose..),0,0
1452,"mai nso : f. rhumatoides groupe 2 : ig humaines (latex, ...)",0,0
1453,mai nso : autoac antinucleaires (aan) par if sur cellules hep 2,0,0
1454,mai nso : ac anti-adn natif par ifi sur sang,0,0
1455,mai nso : ac anti-adn natif par meth. marqueur sur sang,0,0
1456,mai nso :  ac antiantigenes nucleaires solubles : depistage,0,0
1457,mai nso :  ac antiantigenes nucleaires solubles : titrage,0,0
1458,mai nso : ac anti-adn denature : titrage,0,0
1459,mai nso : ac antihistones : titrage,0,0
1460,"mai nso : autoac antiphospholipides (anticardiolipine, ...) : titrage",0,0
1461,mai nso : autoac antimitochondries de type 5 par ifi : titrage,0,0
1462,mai nso : autoac anticytoplasme de pnn (anca) par ifi : titrage,0,0
1463,mai nso : autoac anticytoplasme de pnn (anca) :t.marqueur: specificite,0,0
1464,mai nso : autoac antikeratine : titrage,0,0
1465,hepatopathies : autoac antitissus et antinucleaires,0,0
1466,hepatopathies : ac antimuscle lisse : titrage,0,0
1467,hepatopathies : ac antimuscle lisse : typage,0,0
1468,hepatopathies : ac antiactine : titrage par t. marqueur,0,0
1469,hepatopathies : ac antimitochondries : titrage par ifi,0,0
1470,hepatopathies : ac antimitochondries : titrage par t. marqueur,0,0
1471,hepatopathies : ac antimitochondries : typage par immunoblot,0,0
1472,"hepatopathies : ac antireticulum endoplasmique (lkm, anticytosol)",0,0
1473,hepatopathies : autoac antimembrane nucleaire : ident. cibles,0,0
1474,m. coeliaque : autoac antireticuline : titrage par ifi,0,0
1475,m. coeliaque : autoac anticellules endomysiales : titrage par ifi,0,0
1476,m. coeliaque : autoac antigliadine : titrage des iga,0,0
1477,m. coeliaque : autoac antigliadine : titrage des igg,0,0
1478,"thrombopenies : test direct  mise en evidence ig assoc. aux plaq. (dixon, ...)",0,0
1479,thrombopenies : autoac antiplaq.  : ident. cible immunocapture maipa,0,0
1480,thrombopenies : autoac antiplaq.  : ident. cible immunoblot,0,0
1481,diabete insulinodependant : titrage des  anticorps anticellules d'ilots de langerhans du pancreas p,0,0
1482,diabete insulinodependant : titrage des autoanticorps anti-insuline par immuno-precipitation d'insu,0,0
1483,thyroide  : autoac antithyroglobuline par hemagglutination,0,0
1484,thyroide  : autoac antithyroglobuline par meth   marqueur,0,0
1485,thyroide : autoac antimicrosomes thyroidiens par  hemagglutination,0,0
1486,thyroide : autoac antimicrosomes thyroidiens par ifi,0,0
1487,thyroide : autoac antithyroperoxydase par meth   marqueur,0,0
78,penetration du mucus cervical : test croise,0,0
79,recherche immunisation antispermatozoides (femme),0,0
80,etude d'une ejaculation retrograde,0,0
81,coloration des spermatozoides au bleu d'aniline,0,0
121,temps de saignement (ts) : epreuve de duke,0,0
126,temps de quick (ou taux de prothrombine) en l'absence   de traitement par un antivitamine k rendre l,0,0
127,temps de quick en cas de traitement antivitamine k (inr) rendre le resultat en inr. les cotations,0,0
128,temps de thrombine (t.t.),0,0
130,"un facteur du complexe prothrombinique (ii, v, vii ou x) : dosage",0,0
132,"plus de 2 fact. du complexe prothrombinique (ii, v, vii, x) : dosages",0,0
160,groupage plaquettaire (pla),0,0
161,"groupage granulocytaire (na, nb, nc, nd, ne)",0,0
162,anticorps antiplaquettaires : depistage,0,0
163,anticorps antiplaquettaires : identification,0,0
164,anticorps antigranulocytaires : depistage,0,0
165,anticorps antigranulocytaires : identification,0,0
171,temps de saignement (ts) : test d'ivy (incision ou 3 points),0,0
173,dosage du facteur xiii (facteur de stabilisation de la fibrine),0,0
174,dosage fonctionnel du fibrinogene (facteur i),0,0
175,temps de lyse des euglobulines,0,0
176,pdf : recherche,0,0
177,pdf : dosage (d dimeres  ...),0,0
178,dosage de l'activite coagulante du facteur viii (antihemophilique a),0,0
179,dosage de l'activite coagulante du facteur ix (antihemophilique b),0,0
180,dosage de l'activite coagulante du facteur xi,0,0
181,dosage de l'activite coagulante du facteur xii,0,0
182,depistage d'un anticoagulant circulant  par le test de correction du temps de  cephaline + activate,0,0
183,correction du temps de thrombine,0,0
185,heparinemie par mesure activite antithrombine (anti ii active),0,0
186,mesure de l'activite anti-facteur x  active (anti-xa) de l'heparine ou d'un  derive heparinique,0,0
187,"un facteur de coagulation par meth immuno. (i, ii, vii, x, will.)",0,0
188,dosage immunologique de l'antithrombine (inhibiteur   physiologique de la coagulation) en vue du dia,0,0
189,dosage fonctionnel de l'antithrombine (inhibiteur physiologique de la coagulation) en vue du diagno,0,0
190,dosage fonctionnel de la proteine s en vue du diagnostic d'un deficit ce dosage sera effectue de pr,0,0
191,"dosage fonctionnel de la proteine c en vue du diagnostic d'un deficit, le dosage sera effectue de p",0,0
192,dosage fonctionnel du facteur willebrand par mesure de l'activite cofacteur de la ristocetine (ou a,0,0
214,bacterie aerobie ou microaerophile nommement designee : rech. isolee,0,0
4,histopath. biopsies uniques ou multiples non individualisees,0,0
5,histopath. biopsies etagees sur meme organe et individualisees,0,0
6,histopath. piece oper. interessant un organe,0,0
7,histopath. prelev. resec. ou curetage endosc. ou endocavit.,0,0
8,histopath. piece oper. complexe comportant plusieurs organes,0,0
12,ex. extemporane avec controle histopath. ulterieur,0,0
13,diagnostic cytopathologique gynecologique provenant  d'un ou plusieurs prelevements effectues a des,0,0
14,"cytopath. liq. epanchement, lavage alveolaire ou vesical, lcr",0,0
15,"cytopath. sur ponction ganglion, tumeur, organe",0,0
16,cytopath. sur ponctions plusieurs zones de voisinage,0,0
17,anapath. : immunohistochimie sur coupes en paraffine ou resine,0,0
18,anapath. : immunohistochimie sur coupes a congelation,0,0
21,majoration provisoire conventionnelle  qui s'ajoute a la cotation de l'acte  0008 uniquement pour l,0,0
22,majoration provisoire qui s'ajoute a la cotation de l'acte 0008 uniquement pour les diagnostics his,0,0
23,examen immunocytochimique de l'etalement d'un produit de ponction d'un organe ou d'un produit d'as,0,0
24,test de detection du genome (adn) des papillomavirus  humains oncogenes,0,0
25,examen anatomopathologique par  hybridation in situ. indication : selon les recommandations  de bo,0,0
40,caryotype constitutionnel prenatal :  techniques avec incubation sans  changement de milieu. les c,0,0
41,les cotations des examens 0040 et 0041 ne sont pas   cumulables. les dispositions de l'article 5 des,0,0
54,congelation d'embryons ( par cycle),0,0
59,preparation des spermatozoides en vue  d'insemination artificielle  intra-uterine  (iiu),0,0
60,"fecondation in vitro sans micromanipulation y compris la culture ovocytaire, la preparation des sp",0,0
61,fecondation in vitro par micromanipulation (icsi). cet acte comprend les memes elements que la fiv,0,0
62,preparation des spermatozoides obtenus  par  ponction testiculaire ou epididymaire ou  biopsie tes,0,0
63,"decongelation d'embryon(s) par cycle,  quel  que soit le nombre d'embryons. cet acte  comprend la",0,0
64,"cryoconservation d'embryon(s) par cycle  de  congelation, par annee au-dela de la  premiere annee",0,0
65,congelation de sperme au cours d'une amp  ou  en vue d'une autoconservation associee a  un  trait,0,0
66,cryoconservation de sperme associee a un  traitement sterilisant a visee  therapeutique par patient,0,0
67,"congelation, en vue d'une  autoconservation  pour icsi, de spermatozoides preleves  chirurgicaleme",0,0
68,"cryoconservation de spermatozoides  preleves  chirurgicalement en vue d'une icsi par  patient, par",0,0
70,spermogramme et spermocytogramme,0,0
71,test post-coital (tpc) ou test de huhner,0,0
72,exploration biochimique de la fonction prostato-vesiculaire,0,0
73,exploration de la fonction epididymaire,0,0
74,etude de l'ejaculat fractionne,0,0
75,test de migration-survie des spermatozoides,0,0
76,recherche ac fixes sur les spermatozoides (homme),0,0
77,recherches indirectes d'ac antispermatozoides (homme),0,0
1488,thyroide : autoanticorps antirecepteurs de tsh. la   recherche  d'autoanticorps antirecepteurs de la,0,0
1489,surrenales : autoac antisurrenale par ifi,0,0
1490,tractus digestif : autoac anticellules parietales de l'estomac par ifi,0,0
1491,tractus digestif : autoac antifacteur intrinseque par meth marqueur,0,0
1492,systeme nerveux : autoac antirecepteurs de l'acetylcholine,0,0
1493,mai : autoac antimembrane basale d'epith. malpighien,0,0
1494,mai : autoac antisubstance intercell. d'epith. malpighien par ifi,0,0
1495,mai : autoac cellules productrices de steroides par ifi,0,0
1496,mai : autoac antimemb. basale glomerul. par ifi,0,0
1497,mai : autoac antimemb. basale glomerul. par meth marqueur,0,0
1498,mai : autoac specif. d'autres organes par ifi,0,0
1500,recherche des pigments biliaires.,0,0
1501,dosage d'acides organiques.,0,0
1502,dosage d'ammoniaque/derives amines.,0,0
1503,"calorimetrie fecale. en cas d'augmentation de ce parametre, le biologiste pourra a son initiative",0,0
1504,mise en evidence d'une contamination urinaire. cet acte comprend obligatoirement l'examen microsco,0,0
1505,examen microscopique des urines pour mise en evidence d'une fistule entero-vesicale.,0,0
1506,dosage de l'elastase fecale. cet acte est indique dans le diagnostic des insuffisances pancreatique,0,0
1507,"test a l'hydrogene expire : prelevements. recueil d'au moins 6 echantillons d'air expire, avant et",0,0
1508,test a l'hydrogene expire : mesures. mesure de l'hydrogene expire dans 6 echantillons au moins en v,0,0
1510,"amylasemie. pour les examens 1510 et 1511, cotation  maximum  de deux dosages simultanes dans deux m",0,0
1511,"amylase (autre liquide biologique). pour les examens 1510 et 1511, cotation maximum de deux dosages",0,0
1513,aldolase (sang),0,0
1518,glucose-6-phosphate deshydrogenase (g6pd) (sang),0,0
1519,lysozyme ou muramidase (urine),0,0
1520,creatine phosphokinase (cpk)  la cotation de l'acte 1520 n'est  pas  cumulable avec celle de la trop,0,0
1521,lactate deshydrogenase (ldh) (autre liquide biol que sang),0,0
1525,5'nucleotidase (sang),0,0
1526,creatine phosphokinase mb. la cotation de l'acte 1526   n'est pas cumulable avec celle de la troponi,0,0
1527,pyruvate kinase (sang),0,0
1533,lysozyme ou muramidase (sang),0,0
1554,mai nso : ac anti-adn natif par ifi sur autre liq biol que sang,0,0
1555,mai nso : ac anti-adn natif par meth. marqueur sur autre liq biol que sang,0,0
1571,recherche ou typage d'une  dysglobulinemie monoclonale par  immuno-electrophorese ou immunofixation,0,0
1572,proteinogramme 0570 et typage 1571,0,0
1573,recherche de cryoglobulines apres separation extemporanee du serum a la temperature de 37 c,0,0
1575,myoglobine (dosage par methode immuno-chimique ou par autre methode specifique) le dosage de la my,0,0
1576,proteines glyquees (type fructosamine ou autre) : dosage,0,0
281,cmi champignon filamenteux de pousse lente,0,0
286,ex. parasito. des selles avec 2 methodes de concentration,0,0
287,ex. parasito. des selles avec 1 methode   de concentration,0,0
288,ex. parasito. selles emises au labo (0259 + 0286),0,0
289,amibes : culture sur selles emises au laboratoire,0,0
290,cryptosporidium : rech. sur selles fraichement emises,0,0
316,dosage du complement ch50 par reaction d'hemolyse,0,0
320,alpha-foetoproteine (afp) : dosage cotation non cumulable avec  celle des actes 4004 et 4005.,0,0
321,beta 2 microglobuline dans un autre  milieu biologique que le sang : dosage,0,0
322,hepatite b (vhb) : sd : ag hbs par eia,0,0
323,hepatite b (vhb) : sd : ac antihbs (igg ou ig  totales) par eia,0,0
324,beta 2 microglobuline  dans le sang :  dosage,0,0
325,carbamazepine (tegretol),0,0
327,digoxine ou digitoxine (digitaline),0,0
328,ethosuximide (zarontin),0,0
330,estradiol dans le sang (chez la femme),0,0
332,"phenitoine (diphenyl-hydantoine, dihydan, ...)",0,0
333,"phenobarbital (gardenal, ...)",0,0
334,progesterone,0,0
335,theophylline (sang),0,0
340,acide valproique.,0,0
343,prolactine,0,0
350,statut serologique  diagnostic d'une infection  recente - igm anti-vha,0,0
351,hepatite b (vhb) : sd : ac antihbc totaux par eia,0,0
352,hepatite b (vhb) : sd : ac antihbc igm par eia,0,0
353,hepatite b (vhb) : sd : ag hbe par eia,0,0
354,hepatite b (vhb) : sd : ac antihbe par eia,0,0
357,testosterone (chez l'homme),0,0
358,"proteine de transport des horm. sexuelles (tebg, sbg) (sang)",0,0
364,serotonine par chromatographie liquide  a haute performance (clhp),0,0
388,infection a vih 1 et 2 : 0388 serodiagnostic de  depistage  selon les dispositions de l'arrete du 28,0,0
389,infection a vih 1 et 2 :   analyse de confirmation du    serodiagnostic de depistage par  technique,0,0
390,"infection a vih 1 et 2 :   0390 deux reactions ou   plus (vih 1, vih  2)   les cotations 0389 et 039",0,0
392,infection a vih 1 et 2 : 0392 recherche et titrage de l'antigene p24 du vih 1 la cotation de l'act,0,0
407,clairance (renale) de la creatinine  avec dosages sanguin et urinaire de la  creatinine,0,0
412,"epreuve d'hyperglycemie provoquee (au moins quatre   dosages), y compris recherches et, eventuelleme",0,0
413,epreuve simplifiee d'hyperglycemie,0,0
455,17-cetosteroides urinaires,0,0
461,17-hydroxy-corticosteroides ou  tetrahydro-11 desoxycortisol (t.h.s.)  urinaires,0,0
462,cortisol (sang),0,0
463,aldosterone ou tetrahydro-aldosterone  urinaires,0,0
466,acide hydroxy-indole-acetique  (metabolite de la serotonine) urinaire,0,0
467,acide vanilmandelique (metabolite des  catecholamines) urinaire,0,0
468,catecholamines totales (ou  metanephrines ou acide homovanilique)  urinaires,0,0
472,l.h. dans le sang,0,0
473,f.s.h. dans le sang,0,0
476,cortisol libre urinaire,0,0
477,catecholamines ou metanephrines urinaires avec fractionnement (au moins deux dosages),0,0
478,catecholamines plasmatiques par  chromatographie liquide haute pression.  au moins deux des trois d,0,0
514,phosphatases alcalines,0,0
516,"alanine aminotransferase (alat,tgp) la cotation de l'acte 0516      n'est pas cumulable avec celle d",0,0
517,"aspartate aminotransferase (asat,tgo) la cotation de l'acte    0517 n'est pas cumulable avec celles",0,0
519,"gamma glutamyl transferase (gammat gt , ggt) (sang)",0,0
521,lactate deshydrogenase (ldh) dans le  sang.  cet acte n'est pas indique dans la  maladie coronari,0,0
522,"transaminases (alat et asat, tgp et tgo) cet acte     n'est pas indique dans la maladie coronarienne",0,0
523,enzyme de conversion de l'angiotensine,0,0
524,lipasemie. les cotations des actes 1510 et 0524 ne sont pas  cumulables.,0,0
530,acide lactique.,0,0
532,sang : acide urique (uricemie),0,0
534,alcool (ethylique ou methylique),0,0
536,sang : ammoniaque,0,0
537,benzene,0,0
547,sang : cuivre (serique ou plasmatique),0,0
548,"sang : fer serique (sideremie , fe)",0,0
552,glucose,0,0
557,"lithium (li , lithiemie , li serique , li erythrocytaire) (sang)",0,0
559,sang : methemoglobine (methb),0,0
563,"sang : phosphore mineral (phosphoremie , p)",0,0
565,"plomb (pb , plombemie) (sang)",0,0
566,plomb (pb) dans un autre liquide biologique que le sang,0,0
567,lithium (li) dans un autre liquide biologique que le sang,0,0
570,"proteinogramme (electrophorese) avec determination des pourcentages, dosage des proteines totales,",0,0
571,bicarbonates ou co2 total.,0,0
578,calcium.,0,0
580,sang : cholesterol total (chol) la cotation des actes 0580 et 0590 ne sont pas cumulables avec cell,0,0
584,"sang : magnesium plasmatique ou globulaire (magnesemie , mg)",0,0
590,sang : triglycerides (tg) la cotation des actes 0580 et 0590  ne sont pas cumulables avec celle de l,0,0
591,sang : uree,0,0
592,"creatinine pour les actes 0592 et 0593, il est  recommande  pour le dosage de la  creatinine d'utili",0,0
593,"uree et creatinine pour les actes 0592 et 0593, il est  recommande pour le dosage de la creatinine d",0,0
603,lcr : glucose (glucorachie),0,0
611,lcr : electrophorese des proteines,0,0
614,lcr : dysglobulinorachie : electrophorese et typage,0,0
620,ur. : acetone  (acetonurie),0,0
622,ur. : acide urique  (uricurie),0,0
624,ur. : calcium (calciurie),0,0
627,ur. : creatinine (creatininurie),0,0
629,ur. : phosphore mineral(phosphaturie),0,0
630,ur. : ph : mesure electrometrique,0,0
631,ur. : pigments et sels biliaires :  recherche,0,0
635,ur. : electrophorese des proteines(proteinogramme),0,0
637,ur. : porphyrines : recherche,0,0
638,"ur. : porphyrines : recherche, dosage, identification",0,0
640,ur. : recherche de sang (hematies et/ou hemoglobine),0,0
647,ur. : urobiline : recherche,0,0
657,antitumoraux (autres que methotrexate) dans un autre liq bio que sang,0,0
659,dosage d'analgesiques ou de stupefiants non nommement inscrits a la nabm dans un liquide biologique,0,0
662,psychotropes non inscrits a la nabm dans un autre liq bio que sang,0,0
663,antidepresseurs tricycliques : rech dans un autre liq que sang,0,0
664,antidepresseurs autres que tricycliques dans un autre liq biol que le sang,0,0
665,antidepresseurs : dosage specifique dans un autre liquide biologique que le sang,0,0
666,dosage des lipides totaux. le laboratoire qui execute l'acte devra systematiquement associer a cet,0,0
667,benzodiazepines : recherche dans un autre liquide biologique que le sang,0,0
668,antidepresseurs : recherche et dosage dans un autre liquide biologique que le sg,0,0
671,antiepileptique non inscrit a la nabm (dans un autre liquide biol que le sang),0,0
672,barbituriques : recherche dans un autre liquide biologique que le sang,0,0
673,barbituriques (sauf phenobarbital) : dosage dans un autre liq biol que le sang,0,0
674,barturiques : recherche et dosage dans un autre liquide biologique que le sang,0,0
679,aluminium (al) dans un autre liquide biologique que le sang,0,0
691,liquides de serosite : proteines : dosage,0,0
693,liquides de serosite :electrophorese des proteines(proteinogramme),0,0
701,testosterone libre ou biodisponible dans le sang,0,0
703,insuline libre,0,0
714,aldosterone plasmatique,0,0
727,estradiol dans le sang (homme et enfant),0,0
745,hormone antidiuretique ou vasopressine (adh),0,0
756,c-peptide dans les urines,0,0
763,erythropoietine,0,0
764,gastrine,0,0
774,peptide vasoactif intestinal (vip),0,0
776,renine,0,0
777,inhibines. une seule cotation par patient.,0,0
779,transferrine  desialylee ou deglycosylee ou transferrine  carboxy deficiente (cdt). cet acte n'est,0,0
780,somatomedine (igf1-smc),0,0
783,igfbp 3,0,0
785,parathormone pthrp : dosage,0,0
805,virus de l'immunodeficience humaine (vih) : test de resistance genotypique aux antiretroviraux par,0,0
806,virus de l'immunodeficience humaine (vih): test de resistance genotypique aux antiretroviraux par s,0,0
812,antigene du carcinone a cellules squameuses (scc),0,0
813,antigene tissulaire polypeptidique (tpa) : dosage,0,0
814,enolase (nse),0,0
821,thyroglobuline,0,0
822,cyfra 21-1 : dosage,0,0
823,ecp (eosino cationique proteine) en allergie,0,0
884,separation chromatographique des formes  moleculaires de la prolactine (monomere  + big-big),0,0
901,caryotype constitutionnel postnatal  sanguin,0,0
902,caryotype constitutionnel postnatal sur fibroblastes,0,0
903,actes de cytogenetique moleculaire  constitutionnelle : hybridation sur  chromosomes metaphasiques,0,0
904,actes de cytogenetique moleculaire constitutionnelle : hybridation sur chromosomes metaphasiques (p,0,0
905,actes de cytogenetique moleculaire constitutionnelle : hybridation sur noyaux interphasiques quel q,0,0
906,caryotype sur sang peripherique ou prelevement de moelle osseuse ou tout tissu presume envahi par d,0,0
907,caryotype sur prelevement de tumeur solide,0,0
966,ige specifiques impliquant des  allergenes autres que   les  pneumallergenes et trophallergenes :  l,0,0
967,ige specifiques impliquant des allergenes autres que   les pneumallergenes et trophallergenes : veni,0,0
968,ige specifiques impliquant des allergenes autres que   les pneumallergenes et trophallergenes - medi,0,0
969,tryptase (dans les 24 heures suivant un choc anaphyllactique),0,0
983,parathormone (1-84 ou bioactive),0,0
990,ur. : acides amines libres caracterisation par chromatographie,0,0
991,ur. : acides amines totaux caracterisation par chromatographie,0,0
992,ur. : hydroxyproline totale et libre(hydroxyprolinurie),0,0
996,exploration d'une anomalie lipidique (eal). cet    examen  comprend l'ensemble indissociable des,0,0
999,sang : gaz du sang,0,0
1000,"combinaison de cinq marqueurs sanguins : alpha2-macroglobuline, haptoglobine, apolipoproteine a1, b",0,0
1001,"combinaison de neuf marqueurs sanguins : alpha2-macroglobuline, acide hyaluronique, numeration plaq",0,0
1002,"combinaison de quatre marqueurs sanguins : alpha2-macroglobuline, acide hyaluronique, bilirubine t",0,0
1011,etude des fonctions plaquettaires par methode d'agregation (methode photometrique ou par impedance,0,0
1013,"dosage immunologique du facteur willebrand technique complementaire du dosage fonctionnel, le dosa",0,0
1014,dosage de l'activite coagulante du facteur ii (prothrombine),0,0
1015,dosage de l'activite coagulante du facteur v (proaccelerine),0,0
1016,dosage de l'activite coagulante du facteur vii    (proconvertine) la  cotation de l'acte 1032 n'est,0,0
1017,dosage de l'activite coagulante du facteur x (facteur   stuart) la  cotation de l'acte 1032 n'est pa,0,0
1018,recherche d'un inhibiteur anti-facteur viii ou anti-facteur ix. il est recommande d'effectuer cett,0,0
1019,titrage d'un inhibiteur anti-facteur viii ou anti-facteur ix il est recommande d'effectuer le titr,0,0
1020,recherche et identification d'un anticoagulant de type lupique (ou antiphospholipide par une techni,0,0
1021,determination semi-quantitative des d-dimeres ou des pdf (produits de degradation du fibrinogene et,0,0
1022,dosage quantitatif des d-dimeres la prescription d'un dosage de d-dimeres en vue d'exclure un epis,0,0
1024,recherche d'anticorps anti-facteur 4 plaquettaire (pf4) dans le cadre d'une suspicion de thrombopen,0,0
1025,dosage immunologique de la proteine s libre antigene en vue du diagnostic d'un deficit ce dosage,0,0
1026,dosage immunologique de la proteine s totale en vue du diagnostic d'un deficit ce dosage sera effec,0,0
1027,"dosage immunologique de la proteine c, en vue du diagnostic d'un deficit. le dosage sera effectue",0,0
1028,"dosage immunologique d'une proteine de la coagulation (facteur i, facteur ii, facteur v, facteur vi",0,0
1029,recherche de la mutation g1691a du gene du facteur v (facteur v leiden) les tests genetiques (actes,0,0
1030,"recherche de la mutation g20210a du gene de la prothrombine les tests genetiques (actes 1029, 1030",0,0
1031,recherche de la mutation g1691a du gene du facteur v (facteur v leiden) et recherche de la mutati,0,0
1032,dosage de l'activite coagulante des facteurs vii + x la  cotation de l'acte 1032 n'est pas cumulab,0,0
1054,ciclosporine a (sandimmun) (sang),0,0
1101,myelogramme(medullogr) adenogramme ou splenogramme,0,0
1102,etude complementaire de cytochimie (moelle ou sang),0,0
1103,phenotypage des cellules anormales (moelle ou sang),0,0
1104,"hemogramme y compris plaquettes (nfs , nfp)",0,0
1105,diagnostic  hemopathie maligne (moelle ou sang),0,0
1106,suivi hemopathie maligne connue (moelle ou sang),0,0
1107,etude isolee des plaquettes (thrombocytes). numeration des plaquettes : en cas d'anomalie l'examen,0,0
1109,reticulocytes (rc) : numeration,0,0
1110,corps de heinz : recherche,0,0
1111,drepanocytes : recherche,0,0
1112,resistance globulaire osmotique,0,0
1113,electrophorese de l'hemoglobine (gel polyacrylamide),0,0
1114,electrophorese de l'hemoglobine (citrate agar),0,0
1115,"test solubilite de l'hemoglobine (itano , falciformation)",0,0
1116,test d'auto-hemolyse,0,0
1117,test a l'isopropanol (hemoglobine instable),0,0
1118,hemoglobine f : dosage,0,0
1119,rech. hemoglobinurie nocturne paroxystique,0,0
1120,rech. anomalie de l'hemoglobine (3 techniques min.),0,0
1122,"lymphocytes helpers/suppresseurs (cd4, cd8, cd3 ...)",0,0
1123,protoporphyrines zinc (ppz),0,0
1124,vitesse de sedimentation (vs),0,0
1125,hematozoaires : recherche sur frottis et en goutte epaisse,0,0
1126,parasites du sang autres que hematozoaires : recherche,0,0
1127,temps de cephaline + activateur (tca) quel que soit   le nombre de reactifs utilises. rendre le resu,0,0
1128,"exploration de base de l'hemostase comprenant   numeration des plaquettes, mesure du temps de quick",0,0
1131,rai : identification,0,0
1132,calcitonine,0,0
1133,microalbuminurie (dosage immunochimique a l'exclusion des bandelettes). - en suivi therapeutique (d,0,0
1134,androstenedione,0,0
1135,17-oh-progesterone,0,0
1136,testosterone (femme et enfant),0,0
1137,c-peptide dans le sang,0,0
1138,osteocalcine,0,0
1139,dosage de la 25-(oh)-vitamine d (d2 +  d3)  la prise    en  charge de cet acte est  limitee aux situ,0,0
1140,groupage sanguin abo-rh (d) (gs),0,0
1141,recherche d'anticorps irreguliers (rai) vis-a-vis des  antigenes de groupes sanguins erythrocytaires,0,0
1145,"phenotypes rh (c, c, e, e)  et kell (k)",0,0
1146,"ag erythroc. (cw, kidd, duffy, s, s ...) chaque ag",0,0
1149,rai : titrage d'un anticorps identifie,0,0
1150,rai : dosage ponderal d'un anticorps,0,0
1151,ac immuns du systeme abo : depistage et titrage,0,0
1152,epreuve directe compatibilite pour chaque unite sang,0,0
1153,test direct de coombs (antiglobuline polyvalente),0,0
1154,test direct de coombs (antiglobuline specifique),0,0
1155,epreuve d'elution d'anticorps a partir de gr,0,0
1156,epreuve d'absorption d'anticorps sur gr,0,0
1180,groupages tissulaires : phenotype hla  classe i dans le cadre des maladies  auto-immunes necessitan,0,0
1181,groupages tissulaires : phenotype hla classe ii,0,0
1183,"immuncomplexes circulants (icc, cic) (sang)",0,0
1200,"dosage des ige totales seriques  exclusivement, a l'exception des  techniques utilisant des support",0,0
1201,recherche d'ige specifiques sans identification   individuelle : recherche de pneumallergenes,0,0
1202,recherche d'ige specifiques sans  identification   individuelle : recherche  de trophallergenes,0,0
1203,test unitaire vis-a-vis d'allergenes  multiples separes dans un meme reactif  ou sur un meme suppor,0,0
1204,pneumallergenes : identification avec  dosage   quantitatif des ige specifiques  vis-a-vis   d'alle,0,0
1205,trophallergenes : identification avec  dosage   quantitatif des ige specifiques  vis-a-vis   d'alle,0,0
1206,triiodothyronine libre (t3 libre ou ft3) (sang),0,0
1207,thyroxine libre (t4 libre ou ft4) (sang),0,0
1208,t.s.h. examen de diagnostic d'une dysthyroidie de    premiere  intention ou examen de suivi therapeu,0,0
1209,t3 libre + t4 libre (sang),0,0
1210,t.s.h. + t3 libre (sang),0,0
1211,t.s.h. + t4 libre. examen de diagnostic d'une   dysthyroidie de  deuxieme intention ou examen de,0,0
1212,t.s.h. + t3 libre + t4 libre. examen de diagnostic   d'une  dysthyroidie de deuxieme intention ou ex,0,0
1213,ferritine cotation non cumulable avec celle de l'acte   1822 en cas de suspicion de carence martiale,0,0
1241,"mycobacteries : isolement rapide a partir crachats,tubages,ur,liq..",0,0
1242,"mycobacteries : isolement rapide a partir organe, sang",0,0
3733,grippe b : sd par eia + iteratif,0,0
3734,grippe b : sd par iha + iteratif,0,0
3744,herpes simplex (vhs) : sd : ac igg anti  vhs 1 et 2  par eia + iteratif,0,0
3745,herpes simplex (vhs) : sd : ac igg anti vhs 1 + 2 par  ifi + iteratif,0,0
3746,herpes simplex (vhs) : sd : ac igm anti  vhs 1 et 2  par eia + iteratif,0,0
3747,herpes simplex (vhs) : sd : ac igm anti vhs 1 + 2 par  ifi + iteratif,0,0
3760,parainfluenza (paramyxovirus) : sd par iha + iteratif,0,0
3761,parainfluenza (paramyxovirus) : sd par rfc + iteratif,0,0
3773,rubeole : sd par iha ou eia + iteratif,0,0
3777,varicelle-zona : diagnostic d'une  infection recente  ou d'une recurrence :  igg et igm par eia + it,0,0
3778,varicelle-zona : sd inf recente ou recurrence : igg +  igm par ifi + iterarif,0,0
3779,infection a cmv : diagnostic rapide de l'immunite :  test au latex,0,0
3780,grippes a et b : sd controle d'immunite par iha,0,0
3781,infection a vrs : sd : depistage ac par rfc (chez adulte),0,0
3783,rubeole : sd : igm par immunocapture,0,0
3784,statut serologique  depistage des anticorps anti-vhc.,0,0
3785,"hepatite c (vhc) : controle serologique par une    technique eia ou non, utilisant un reactif differ",0,0
3786,infection a ebv : mononucleose infectieuse (mni) : ac heterophiles : recherche,0,0
3787,infection a vrs : sd : depistage ac par eia,0,0
4001,dpn : c. index - et. familiale : orientation : profils metaboliques,0,0
4002,dpn : c. index - et. familiale : orientation : dosage metabolite,0,0
4003,dpn : c. index - et. familiale : orient : immunochimie prot ou metab sur cell,0,0
4004,trisomie 21 foetale : depistage au  deuxieme  trimestre    par les  marqueurs  seriques maternels.,0,0
4005,trisomie 21 foetale : depistage  sequentiel integre  au     deuxieme  trimestre. si les conditions d,0,0
1712,infection a arenavirus : sd par seroneutralisation,0,0
1713,infection a cmv recente  sd : igg + igm par eia,0,0
1714,infection a cmv recente  sd : igg + igm par ifi,0,0
1715,infection a ebv ancienne : sd : ac vca igg et ac ebna par ifi,0,0
1716,infection a ebv ancienne : sd : ac vca igg et ac ebna par eia,0,0
1717,infection a ebv recente ou evolutive : sd : ac vca igm ou ac ea igm par ifi,0,0
1718,infection a ebv recente ou evolutive : sd : ac vca igm ou ac ea par eia,0,0
1719,infection a ebv  : sd : ac ea iga ou ac vca iga,0,0
1720,poliomyelite : sd : controle d'immunite (3 serotypes),0,0
1721,infection a virus coxsackie a et b : sd,0,0
1729,grippe a : sd par rfc,0,0
1730,grippe a : sd par eia,0,0
1731,grippe a : sd par iha,0,0
1732,grippe b : sd par rfc,0,0
1733,grippe b : sd par eia,0,0
1734,grippe b : sd par iha,0,0
1735,grippes a et b : sd controle d'immunite par seroneutralisation,0,0
1736,controle d'une immunite ancienne ou controle de  vaccination  - igg ou ig totales anti-vha,0,0
1740,statut serologique anticorps anti-delta igg ou totaux  cet examen ne peut etre prescrit que pour de,0,0
1741,hepatite delta (vhd) : sd : ac igm par eia,0,0
1742,hepatite delta (vhd) : sd : ag delta par eia,0,0
1743,hepatite e (vhe) : sd : ac anti-vhe par eia,0,0
1744,recherche d'anticorps anti-hsv recherche des igg la prise en charge de cet acte est limitee a : -l,0,0
1745,herpes simplex (vhs) : sd : ac igg anti vhs  1 + 2  par ifii,0,0
1746,herpes simplex (vhs) : sd : ac igm anti  vhs 1 et 2  par eia,0,0
1747,herpes simplex (vhs) : sd : ac igm anti vhs 1 + 2 par  ifi,0,0
1752,herpes 6 (vhh6) : sd : ac igg,0,0
1753,herpes 6 (vhh6) : sd : ac igg par ifi,0,0
1754,infection a htlv (i et ii) : sd de depistage par eia,0,0
1755,infection a htlv (i et ii) : sd de confirmation par immunotransfert,0,0
1756,oreillons (v. ourlien) : infection recente : sd : igg + igm par ifi,0,0
1757,oreillons (v. ourlien) : infection recente : sd : igg   + igm par eia,0,0
1758,oreillons (v. ourlien) : immunite ancienne : sd : igg par eia,0,0
1759,oreillons (v. ourlien) : immunite ancienne : sd : igg par ifi,0,0
1760,parainfluenza (paramyxovirus) : sd par iha,0,0
1761,parainfluenza (paramyxovirus) : sd par rfc,0,0
1762,inf. a parvovirus b 19 recente : sd : igg + igm par ifi,0,0
1763,inf. a parvovirus b 19 recente : sd : igg + igm par eia,0,0
4307,aspergillose : sd de depistage,0,0
4308,aspergillose : sd de confirmation par coes,0,0
4309,aspergillose : sd de confirmation par ielp,0,0
4310,aspergillose : sd de confirmation par ie,0,0
4311,aspergillose : recherche antigenes solubles,0,0
4312,candidose : sd de depistage par 1 techn.,0,0
4313,candidose systemique :sd de depistage par 2 techniques,0,0
4314,candidose : sd de confirmation par coes,0,0
4315,candidose : sd de confirmation par ielp,0,0
4316,candidose : sd de confirmation par ie,0,0
4317,candidose : recherche antigenes solubles,0,0
4318,cryptococcose : antigenes solubles : recherche,0,0
4319,cryptococcose : antigenes solubles : titrage,0,0
4321,cysticercose : sd de depistage par 2 techn.,0,0
1577,hba1c : dosage,0,0
1601,sang : bilirubine (bil),0,0
1602,sang : apolipoproteine b. l'acte est indique dans les situations suivantes : - maladie genetiques,0,0
1603,sang : apolipoproteine a1 l'acte est indique dans les situations suivantes : - maladies genetiques,0,0
1607,sang : osmolarite mesuree,0,0
1608,potassium.,0,0
1609,sang : ionogramme (sodium + potassium +   eventuellement chlore),0,0
1610,"ionogramme complet. il comporte la determination     minimale du  potassium, du sodium, du chlore, d",0,0
1612,sang : saturation en oxygene (sao2),0,0
1613,lcr : proteines totales (proteinorachie),0,0
1614,lcr : dosage d'une proteine,0,0
1615,lcr : dosage de deux proteines ou plus,0,0
1616,lcr : recherche ou typage d'une dysglobulinorachie monoclonale ou  oligoclonale,0,0
1619,ur. : proteinurie de bence jones:recherche et identification,0,0
1620,ur. : typage de la nature d'une  proteinurie,0,0
1621,"ur. : potassium et sodium (ionogramme, k + na)",0,0
1622,"examen physique complet d'une selle, comportant au minimum le poids moyen, le poids sec, un examen",0,0
1623,selles : examens physique et chimique complets,0,0
1624,dosage de l'azote fecal total. le laboratoire qui execute l'acte devra  systematiquement associer a,0,0
1625,selles : azote fecal total et soluble,0,0
1626,"ionogramme fecal (comportant au minimum les dosages de chlore, de sodium et de potassium avec calcu",0,0
1627,osmolarite fecale mesuree et calcul du trou osmolaire. cet acte doit imperativement etre pratique,0,0
1628,"determination de l'activite chymotrypsique fecale. dans le cas d'un traitement par enzymotherapie,",0,0
1629,recherche de sang (hematies et/ou hemoglobine humaine). toute prescription explicite de recherche,0,0
1630,fecalogramme (ou coprologie  fonctionnelle) : cette determination  comprend au minimum les examens,0,0
1632,calculs : analyse  morpho-constitutionnelle des calculs  par analyse sequentielle optique et  phys,0,0
1633,liquides de serosite : dosage d'une  proteine,0,0
1634,liquides de serosite : dosage de deux  proteines ou plus,0,0
1635,epreuve de la sueur par methode physico-chimique,0,0
1649,theophylline dans un autre liquide biologique que le sang,0,0
1650,"antibiotique(aminosides,vancomycine,...) : un dosage (sang)",0,0
1651,"antibiotique (aminosides,vancomycine,...):deux dosages du meme (sang)",0,0
1652,"isoniazide (inh , rimifon) (sang)",0,0
1653,"isoniazide (inh,rimifon)et son metabolite (sang)",0,0
1655,methotrexate (sang),0,0
1656,methotrexate et son metabolite (sang),0,0
1657,antitumoraux (autres que methotrexate) (sang),0,0
1658,cafeine (en pediatrie),0,0
1659,dosage d'analgesiques ou de stupefiants non nommement inscrits a la nabm dans le sang. cet examen,0,0
1660,acide salicylique : dosage,0,0
1661,paracetamol : dosage,0,0
1662,psychotropes non nommement inscrits a la nabm  (sang),0,0
1663,antidepresseurs tricycliques : recherche (sang),0,0
1664,antidepresseurs autres que tricycliques : recherche (sang),0,0
1665,antidepresseurs : dosage specifique (sang),0,0
1666,antidepresseurs : recherche et dosage (sang),0,0
1667,benzodiazepines : recherche (sang),0,0
1668,"diazepam (valium, ...) et son metabolite",0,0
1669,clonazepam (rivotril),0,0
1670,primidone (mysoline) + phenobarbital (gardenal),0,0
1671,antiepileptique non nommement inscrit a la nabm (sang),0,0
1672,barbituriques : recherche (sang),0,0
1673,barbituriques (sauf phenobarbital) : dosage (sang),0,0
1674,barbituriques : recherche et dosage (sang),0,0
1675,"disopyramide (isorythm, rythmodan)",0,0
1676,"lidocaine (xylocaine, ...)",0,0
1677,"quinidine ou hydroquinidine (serecor, natisedine, cardioquine, longacor)",0,0
1678,antiarythmiques non nommement inscrits a la nabm,0,0
1679,aluminium (al) (sang),0,0
1680,oxyde de carbone du sang (co),0,0
1681,laxatifs dans les selles ou les urines : rech. et identification,0,0
1682,"recherche et identification de laxatifs dans les urines, comprenant au minimum celle des derives an",0,0
1683,"recherche et identification de laxatifs dans les selles, comprenant au minimum celle des derives an",0,0
1690,"corps asbestosiques (parench. pulm., lba, expectoration)",0,0
1691,recherche de l'allele hla-b*5701 par  une technique de biologie moleculaire. cet acte est indique c,0,0
1701,infection a adenovirus : sd par rfc,0,0
1702,infection a adenovirus : sd par ifi,0,0
1703,infection a adenovirus : sd par iha,0,0
1704,infection a adenovirus : sd par eia,0,0
1705,infection a adenovirus : sd par seroneutralisation,0,0
1706,arboviroses : recherche ac par iha,0,0
1707,arboviroses : recherche igm specifiques par eia,0,0
1708,arboviroses : recherche igg specifiques par eia,0,0
1709,fievre jaune (controle d'immunite) par seroneutralisation la prise en charge de l'acte 1709 est li,0,0
1710,infection a arenavirus : sd par ifi,0,0
1711,infection a arenavirus : sd par eia,0,0
1764,inf. a parvovirus b 19 ancienne : sd : igg ou ig totales par eia,0,0
1765,inf. a parvovirus b 19 ancienne : sd : igg ou ig totales par ifi,0,0
1766,rage : sd infection recente : igg + igm par eia,0,0
1767,rage : sd controle d'immunite : igg par eia,0,0
1768,rougeole : sd infection recente : igg + igm par eia,0,0
1769,rougeole : sd infection recente : igg + igm par ifi,0,0
1770,rougeole : sd controle d'immunite : igg ou ig totales par eia,0,0
1771,rougeole : sd controle d'immunite : igg ou ig totales par ifi,0,0
1772,rougeole : sd controle d'immunite : igg ou ig totales par iha,0,0
1773,rubeole : sd par iha ou eia,0,0
1777,varicelle-zona : diagnostic d'une  infection recente    ou d'une recurrence :  igg et igm par eia,0,0
1778,varicelle-zona : sd inf recente ou recurrence : igg +  igm par ifi,0,0
1779,detection des anticorps anti-vzv recherche des igg determination du statut immunitaire: dans les,0,0
1780,varicelle : sd : controle d'immunite par ifi,0,0
1785,recherche d'anticorps anti-cmv recherche des igg:  determination du statut immunitaire : dans les,0,0
1786,infection a cmv  : immunite ancienne  sd : igg par  ifi,0,0
1800,diabete insulino-dependant : anticorps anti-ia2,0,0
1801,estradiol dans un autre milieu biologique que le sang,0,0
1802,sulfate de dha. la prise en charge de l'examen est limitee aux maladies surrenaliennes.,0,0
1803,test au trh. cotation applicable quel que soit le nombre d'hormones dosees. la cotation de l'acte,0,0
1804,proteine c reactive (crp),0,0
1805,alpha 2 macroglobuline : dosage,0,0
1806,albumine,0,0
1807,alpha 1 antitrypsine (alpha 1 protinease inhibitor; alpha 1 pi) : dosage,0,0
1808,alpha 1 glycoproteine acide ou orosomucoide : dosage,0,0
1809,ceruleoplasmine : dosage,0,0
1810,c1 inhibiteur : dosage,0,0
1811,c3,0,0
1812,c4,0,0
1813,haptoglobine,0,0
1814,iga,0,0
1815,igg,0,0
1816,igm,0,0
1817,prealbumine,0,0
1818,rbp (retinol binding protein) : dosage,0,0
1819,transferrine ou siderophylline : dosage,0,0
1820,derives dihydroxyles de la vitamine d. une seule cotation par  patient.,0,0
1821,"peptides natriuretiques (anp, bnp, nt-probnp) :    dosage",0,0
1822,recepteur soluble de la transferrine (rstf) cotation non cumulable avec celle de l'acte 1213,0,0
4006,trisomie 21 foetale : depistage combine au premier     trimestre  de la grossesse. l'examen sera pra,0,0
4010,dpn : c. index - et. familiale : etude d'un metabolisme in vitro,0,0
4011,dpn : c. index - et. familiale : enz : substrat non isotopique - 1 activite,0,0
4012,dpn : c. index - et. familiale : enz substrat non isotopique (techn. complexe),0,0
4013,dpn : c. index - et. familiale : enz (substrat isotopique),0,0
4020,dpn proprement dit : alpha foeto proteine,0,0
4021,dpn proprement dit - acetylcholinesterase avec electrophorese,0,0
4022,dpn proprement dit : activite enz : type phosphatase alcaline,0,0
4023,dpn proprement dit : exploration thyroidienne,0,0
4024,dpn proprement dit : medicament,0,0
4025,dpn proprement dit : marqueur tumoral,0,0
4026,dpn proprement dit : etude metabolique globale sur cellules,0,0
4027,dpn proprement dit : etude enz sur cellules (substrat non isotopique),0,0
4028,dpn proprement dit : etude enz sur cellules (substrat isotopique),0,0
4030,dpn : c. index - et. familiale : cultures cellulaires,0,0
4031,dpn proprement dit : cultures cellulaires,0,0
4033,dpn : c. index - et. familiale : mal. hereditaires metaboliques,0,0
4034,dpn proprement dit : mal. hereditaires metaboliques,0,0
4040,"dpn : et. familiale : mucoviscidose : 2 mutations, dont delta f 508",0,0
4041,dpn : et. familiale : mucoviscidose : plus de 2 mutations,0,0
4042,dpn : et. familiale : mucoviscidose : polymorphisme de l'adn,0,0
4044,dpn proprement dit : mucoviscidose : delta f 508,0,0
4045,dpn proprement dit : mucoviscidose : autres mutations que delta f 508,0,0
4046,dpn proprement dit  : mucoviscidose : polymorphisme de l'adn,0,0
4050,dpn : et. familiale : x fragile,0,0
4051,dpn proprement dit : x fragile,0,0
4052,dpn : et. familiale : myopathies duchenne et becker,0,0
4053,dpn proprement dit : myopathies duchenne et becker,0,0
4054,dpn : drepanocytose,0,0
4055,dpn : beta thalassemie majeure (2 mutations),0,0
4056,dpn : beta thalassemie majeure (+ de 2 mutations),0,0
4057,dpn : beta-thalassemie : polymorphisme de l'adn,0,0
4058,dpn : alpha-thalassemie avec antecedents familiaux connus,0,0
4059,dpn : alpha-thalassemie sans antecedents familiaux connus,0,0
4060,dpn : toxoplasme : culture cellulaire,0,0
4061,dpn : toxoplasme : inoculation a souris,0,0
4062,dpn : toxoplasme : culture cellulaire + inoculation a  souris,0,0
4063,recherche directe de toxoplasma par amplification  genique  detection d'adn toxoplasmique    a par,0,0
1823,antigene ca 125 dans un autre milieu biologique que le sang : dosage,0,0
1824,chromogranine : dosage,0,0
1825,parametres tissulaires en cancerologie : dosages quantitatifs a partir d'une extraction subcellulai,0,0
1826,parametres tissulaires en cancerologie : traitement pre-analytique du tissu tumoral cryopreserve -,0,0
1827,recherche ou titrage d'anticorps antipeptides cycliques citrullines. cet acte est indique dans le d,0,0
1828,recherche ou titrage d'autoanticorps antitransglutaminase de classe iga. l'antigene utilise doit et,0,0
1829,recherche ou titrage d'autoanticorps antitransglutaminase de classe igg. l'antigene utilise doit et,0,0
1830,recherche ou titrage d'autoanticorps antiendomysium de classe iga par immunofluorescence indirecte.,0,0
1831,recherche ou titrage d'autoanticorps antiendomysium de classe igg par immunofluorescence indirecte.,0,0
2000,sang : capacite totale de saturation en fer de la transferrine  (ctst),0,0
2001,"sang : dosage du cholesterol-ldl (c-ldl). par une methode  enzymatique, directe, standardisee et aut",0,0
2002,coefficient de saturation de la transferrine (cs-tf ) le code 2002 comprend les dosages du fer et de,0,0
2003,zinc plasmatique ou serique. une seule cotation par patient. ce dosage peut etre realise par spect,0,0
2004,"ur : proteinurie, recherche et dosage",0,0
2005,ur. : sodium urinaire,0,0
2006,ur. : potassium urinaire,0,0
2007,"ur. : glycosurie, recherche et dosage",0,0
2008,cuivre urinaire,0,0
2009,ur. : cristallurie,0,0
2010,ur. : oxalurie,0,0
2011,ur. : citraturie,0,0
2012,ur. : magnesurie,0,0
2013,ur. : oxalurie + citraturie + magnesurie,0,0
2108,hematocrite (hte),0,0
2109,recherche - quantification d'hematies  foetales par le test de kleihauer ou  par une technique immu,0,0
2258,proteines seriques ou plasmatiques totales (protides),0,0
3246,mycoplasmoses respiratoires : serodiagnostic : igg par eia + iteratif,0,0
3247,mycoplasmoses respiratoires : serodiagnostic : igm par eia + iteratif,0,0
3248,fievre q (coxiella burnetti) : serodiagnostic : titrage avec un antigene de phase ii (ifi) + itera,0,0
3249,fievre q chronique (coxiella burnetti) : serodiagnostic (igg et iga) avec un antigene de phase i et,0,0
3252,maladie des griffes du chat (bartonelloses-infections a bartonella henselae et bartonella quintana),0,0
3253,arboviroses (autres que les infections  par les virus de la dengue ou du  chikungunya) recherche d,0,0
3254,infection par le virus du chikungunya recherche des igm et des igg + examen iteratif par eia infe,0,0
3255,infection par les virus de la dengue -  recherche des igg et des igm + examen iteratif par eia in,0,0
3307,"infections urogenitales a chlamydia trachomatis : serodiagnostic (igg et, en cas de positivite, iga",0,0
3308,infections pulmonaires a chlamydia  pneumoniae : serodiagnostic + iteratif,0,0
3309,infections pulmonaires a chlamydia psittaci : serodiagnostic + iteratif,0,0
3310,infections a campylobacter :  serodiagnostic + iteratif,0,0
3311,infections a helicobacter pylori : serodiagnostic + iteratif,0,0
3313,mycoplasmoses respiratoires :  serodiagnostic avec anticorps totaux  par rfc +agg + iteratif,0,0
3318,"rickettsioses (rickettsia conorii,  rickettsia typhi) : serodiagnostic :  titrage sur au moins 2 an",0,0
3337,legionelloses : serodiagnostic : titrage avec six antigenes et plus + iteratif,0,0
3706,arboviroses : recherche ac par iha + iteratif,0,0
3707,arboviroses : recherche igm par eia + iteratif,0,0
3708,arboviroses : recherche igg specifiques par eia + iteratif,0,0
3713,infection a cmv recente  sd :  igg + igm par eia +    iteratif,0,0
3714,infection a cmv recente  sd : igg + igm par ifi +  iteratif,0,0
3729,grippe a : sd par rfc + iteratif,0,0
3730,grippe a : sd par eia + iteratif,0,0
3731,grippe a : sd par iha + iteratif,0,0
3732,grippe b : sd par rfc + iteratif,0,0
4272,rhinovirus : cultures orientees et identification,0,0
4273,detection de l'antigene ns1 de la  dengue   par eia ou par ict   la prise en charge de l'acte 4273 e,0,0
4301,amibiase : sd de depistage par 2 techn.,0,0
4302,amibiase : sd de confirmation par coes,0,0
4303,amibiase : sd de confirmation par ielp,0,0
4304,anisakiase : sd de depistage par 2 techn.,0,0
4305,anisakiase : sd de confirmation par ielp,0,0
4306,anisakiase : sd de confirmation par ie,0,0
4322,cysticercose : sd de confirmation par ielp,0,0
4323,cysticercose : sd de confirmation par ie,0,0
4324,distomatose : sd de depistage par 2 techn.,0,0
4325,distomatose : sd de confirmation par coes,0,0
4326,distomatose : sd de confirmation par ielp,0,0
4327,distomatose : sd de confirmation par ie,0,0
4328,"echinococcoses (kyste hydatique, ...) : sd de depistage par 2 techn.",0,0
4329,"echinococcoses (kyste hydatique, ...) : sd de confirmation par coes",0,0
4330,"echinococcoses  (kyste hydatique, ...) : sd de confirmation par ielp",0,0
4331,"echinococcoses  (kyste hydatique, ...) : sd de confirmation par ie",0,0
4332,filariose : sd de depistage par 2 techn.,0,0
4333,filariose : sd de confirmation par coes,0,0
4334,filariose : sd de confirmation par ielp,0,0
4335,filariose : sd de confirmation par ie,0,0
4336,histoplasmose : sd de depistage,0,0
4337,histoplasmose : sd de confirmation par ielp,0,0
4338,hypodermose : sd de depistage par 2 techn.,0,0
4339,hypodermose : sd de confirmation par ielp,0,0
4340,larva migrans : toxocarose : sd de depistage par 2 techn.,0,0
4341,larva migrans : toxocarose : sd de confirmation par coes,0,0
4342,larva migrans : toxocarose : sd de confirmation par ielp,0,0
4343,larva migrans : toxocarose : sd de confirmation par ie,0,0
4344,leishmaniose : sd de depistage par 2 techn.,0,0
4345,leishmaniose : sd de confirmation par ie,0,0
4347,mal. poumon eleveur d'oiseaux : sd de depistage,0,0
4348,mal. poumon eleveur d'oiseaux : sd de confirmation par ielp,0,0
4349,mal. poumon fermier : sd de depistage,0,0
4350,mal poumon fermier : sd de confirmation par ielp,0,0
4351,alveolites allergiques exogenes : sd de depistage,0,0
4352,alveolites allergiques exogenes : sd de confirmation par ielp,0,0
4353,paludisme : sd par els,0,0
4354,paludisme : sd par ifi,0,0
4355,schistosomiase : sd de depistage,0,0
4356,schistosomiase : sd de confirmation par ielp,0,0
4357,schistosomiase : sd de confirmation par ie,0,0
4358,trichinose : sd de depistage,0,0
4359,trichinose : sd de confirmation par ielp,0,0
4360,trypanosomiase : mal. sommeil : sd de depistage,0,0
4361,trypanosomiase : mal. chagas : sd de depistage,0,0
4362,infection parasitaire non nommement inscrite a la nabm : serodiagnostic (sd),0,0
4500,statut serologique depistage et/ou diagnostic d'une  hepatite  b. - antigene hbs  - anticorps anti-h,0,0
4501,"statut serologique en cas de resultat positif pour  l'antigene  hbs lors de l'examen 4500,  - une",0,0
4502,statut serologique  diagnostic d'une infection  recente  igm anti-vhe,0,0
4503,detection quantification de l'arn viral du  vhe les  indications sont limitees aux  situations suiva,0,0
4504,recherche d'enterovirus par amplification genique  dans le  liquide cerebrospinal. la prise en charg,0,0
4505,"detection-quantification du genome du   cytomegalovirus dans les prelevements  suivants:  sang, moe",0,0
4506,detection du genome et typage de l'herpes  simplex 1  et 2,0,0
4507,"recherche directe de vzv par amplification  genique   sur lesions cutaneomuqueuses, lcs,  prelevemen",0,0
4508,recherche directe de toxoplasma par  amplification  genique  detection d'adn toxoplasmique    a part,0,0
4710,hepatite b (vhb):sd infection recente:ag hbs+ac  anti-hbc igm  par eia,0,0
4711,statut serologique suivi d'une hepatite b chronique  - antigene hbs  - antigene hbe  - anticorps,0,0
4712,statut serologique controle de guerison               - antigene hbs,0,0
4713,hepatite b (vhb):sd controle avant vaccination:ac  anti hbs+ac  anti hbc eia,0,0
4714,statut serologique determination du statut immunitaire dans le cadre  d'une vaccination. dosage de,0,0
4715,statut serologique surveillance de la grossesse  antigene hbs.,0,0
4716,infection a htlv (i et ii) : sd de depistage par agglutination,0,0
4717,rubeole : sd d'une immunite post-vaccinale par agglutination,0,0
4718,leptospirose recherche des igm de leptospira par eia a realiser uniquement en phase immune (detec,0,0
5201,examen cytobacteriologique des urines (ecbu) cet  examen doit etre pratique sur urines fraichement,0,0
5202,"secretions, exsudats et ulcerations de localisation   genitale et ano-genitale outre les recherches",0,0
5203,"secretions, exsudats et ulcerations de localisation     genitale et ano-genitale outre les recherche",0,0
5204,produit d'origine pelvienne obtenu par coelioscopie  outre les recherches incluses dans la cotation,0,0
5205,"sperme   outre les recherches incluses dans la    cotation  forfaitaire, l'examen comprend la    nu",0,0
5207,ex microbio matieres fecales et/ou prelevement rectal,0,0
5209,ex microbio de la sphere oro-rhino-pharyngee,0,0
5210,ex microbio secretions broncho-pulmonaires et expectorations,0,0
5213,conjonctivite bacterienne (infection superficielle).    l'examen comprend outre les recherches inclu,0,0
5214,"ex microbio peau, phaneres",0,0
5215,"ex microbio plaie, ecoulement purulent, tissu",0,0
5216,"ex microbio prel divers : cathet, chambr implant, prothese, valves",0,0
5218,"ex microbio p. oculaire (cornees, lentilles...) acanthamoeba",0,0
5219,ex microbio hemoculture qualitative,0,0
5221,ex microbio hemoculture quantitative,0,0
5222,"ex microbio prel divers : meches (par site), redon (par site), sterilet",0,0
5223,"ex microbio placenta, loochies",0,0
5224,ex microbio pus (collection fermee),0,0
5225,ex microbio prel pluri-orificiels nouveau-ne,0,0
5226,ex microbio p.oculaire par ophtalmo :lesions ulcereuses,0,0
5229,infection nosocomiale : cotation supplementaire,0,0
5230,"ex microbio prod aspiration bronchique, bbp et lba______________________________",0,0
5231,"ex microbio de liq de ponction (lcr, articulation, peritoine, ...)",0,0
5233,helicobacter pylori  test respiratoire a l'uree marquee au  c13.  recueil des deux echantillons d',0,0
5234,helicobacter pylori : test respiratoire a l'uree marquee au carbone 13. analyse des deux echantill,0,0
5235,legionella pneumophila:recherche d'antigene soluble urinaire par technique immuno-enzymatique,0,0
5249,serotypage d'une espece bacterienne,0,0
5253,"mycoplasmes : cultures sur milieux speciaux,numeration,caracterisation",0,0
5254,chlamydia : rech directe isolee et exclusive par methode immunologique,0,0
5255,chlamydia : recherche par culture,0,0
5256,"genome : chlamydia : hybrid molec sans ampli genique (endocol, uretre, ...)",0,0
5257,infections a chlamydia trachomatis : recherche d'adn     ou d'arn de chlamydia trachomatis par ampli,0,0
5258,recherche de bordetella pectussis et bordetella parapertussis par amplification genique. sur aspir,0,0
5259,detection de l'arn du virus du chikungunya par rt pcr   prelevement jusqu'a j7 apres le debut des si,0,0
5260,"detection de l'arn des virus de la dengue par rt pcr prelevement, jusqu'a j7 apres le debut des",0,0
5261,"detection de l'arn des virus de la  dengue et du  chikungunya par rt pcr   prelevement, jusqu'a j7",0,0
5262,leptospirose detection de l'adn du genre leptospira par amplification genique en temps reel a rea,0,0
5263,"detection de l'arn du virus zika par rt-pcr sur  prelevement sanguin prelevement, jusqu'a j7 apres",0,0
5264,"detection de l'arn du virus zika par  rt-pcr sur     prelevement urinaire.prelevement, jusqu'a j10 a",0,0
5265,"detection de l'arn des virus de la dengue, du  chikungunya et  zika par rt-pcr sur prelevement  sang",0,0
5266,"detection de l'arn des virus de la dengue et zika par rt-pcr   sur prelevement sanguin prelevement,",0,0
5267,detection de l'arn des virus du chikungunya et zika par rt-pcr   sur prelevement sanguin prelevement,0,0
5268,detection de l'arn du virus zika par rt  pcr sur  prelevement  de sperme l'acte 5268 est pris en cha,0,0
5278,cmi bacterie aerobie,0,0
5279,cmi bacterie anaerobie,0,0
5280,cmi levures,0,0
5284,spirochetes isolement borrelia par culture,0,0
5290,cmi streptococcus pneumoniae,0,0
5291,recherche d'une espece microbienne par   immunofluorescence sur prescription explicite     (pneumoc,0,0
5292,identif biochimique et/ou antigenique d'une bacterie anaerobie,0,0
5293,dosage microbio d'un antibiotique chez le malade,0,0
5294,activite antibiotique globale d'un liquide biologique,0,0
5301,recherche directe de chlamydia trachomatis  et/ou de  neisseria gonorrhoeae par  amplification geniq,0,0
6301,amibiase : suivi du sd de depistage par 1 techn. + iteratif,0,0
6307,aspergillose : suivi du sd de depistage + iteratif,0,0
6312,candidose : suivi du sd de depistage par 1 techn. + iteratif,0,0
6319,cryptococcose : suivi du titrage antigenes solubles + iteratif,0,0
6321,cysticercose : suivi du sd de depistage par 1 techn. + iteratif,0,0
6324,distomatose : suivi du sd de depistage par 1 techn. + iteratif,0,0
6328,"echinococcoses  (kyste hydatique, ...) : suivi du sd de depist. par 1 techn. + i",0,0
6332,filariose : suivi du sd de depistage par 1 techn. + iteratif,0,0
6340,larva migrans : toxocarose : suivi du sd de depist. par 1 techn. + iteratif,0,0
6344,leishmaniose : suivi du sd de depistage par 1 techn. + iteratif,0,0
6347,mal. poumon eleveur d'oiseaux : suivi du sd de depistage + iteratif,0,0
6349,mal. poumon fermier : suivi du sd de depistage + iteratif,0,0
6351,alveolites allergiques exogenes : suivi du sd de depistage + iteratif,0,0
6355,schistosomiase : suivi  du sd de depistage + iteratif,0,0
6358,trichinose : suivi du sd de depistage + iteratif,0,0
6360,trypanosomiase : mal. sommeil : suivi du sd de depistage + iteratif,0,0
6361,trypanosomiase : mal. chagas : suivi du sd de depistage + iteratif,0,0
7301,vitamine a : dosage,0,0
7302,vitamine e : dosage,0,0
7305,vitamine b6 : dosage,0,0
7307,procalcitonine : dosage,0,0
7308,acide hyaluronique : dosage,0,0
7309,phosphatase alcaline osseuse.,0,0
7310,marqueurs de l'osteoporose. deoxypyridinoline et peptides associes (produits de degradation du coll,0,0
7311,ferritine erythrocytaire : dosage,0,0
7317,sous unite beta hcg libre : dosage. la prise en charge est limitee au primo-diagnostic ou au suivi,0,0
7318,antigene prostatique specifique (psa) : dosage,0,0
7320,antigene prostatique specifique libre (psa libre)   avec rapport  psa libre / psa total : dosage,0,0
7321,antigene ca 15-3 : dosage,0,0
7323,antigene ca 19-9 : dosage,0,0
7325,antigene ca 125 : dosage,0,0
7327,antigene carcino-embryonnaire (ace) : dosage,0,0
7335,troponine - determination quantitative (sang),0,0
7401,hcg ou beta hcg (recherche ou dosage) dans les urines,0,0
7402,hcg ou beta hcg (recherche ou dosage) dans le sang. cet examen ne peut etre pris en charge lorsqu',0,0
7414,dehydroepiandrosterone (dha) plasmatique. la prise en  charge de l'examen est limitee aux maladies,0,0
7415,dihydrotestosterone (dht),0,0
7420,corticotropine (acth),0,0
7422,insuline,0,0
7423,"hormone de croissance (hgh, somatotropine) (sang)",0,0
7890,diabete insulinodependant : anticorps  anti gad,0,0
8000,recherche de la mutation c282y du gene hfe1 cette recherche est prise en charge par l'assurance mala,0,0
9001,supplement pour actes en urgence nuit. les actes de nuit sont ceux effectues entre vingt heures et,0,0
9004,"supplement pour actes en urgence (samedi apres 12h, dimanche, ferie). le numero de code de ce suppl",0,0
9005,forfait de prise en charge pre-analytique du patient.  ce forfait comprend : - le recueil des donnee,0,0
9105,forfait de securite pour le traitement d'un   echantillon sanguin dans les conditions   prevues par,0,0
9106,"forfait de securite pour le traitement d'un  echantillon en vue d'examens bacteriologiques,  mycolo",0,0
9107,supplement pour actes de biologie effectues sur les patients hospitalises en etablissements de soi,0,0
9905,complement a la cotation minimale de valeur b 5 (sang). la cotation minimale d'un ou de plusieurs,0,0
9910,complement a la cotation minimale de  valeur b 10 (sang). la cotation minimale d'un ou de  plusieu,0,0
9914,complement a la cotation minimale de valeur b 14,0,0
9915,complement a la cotation minimale de  valeur b 15 (sang). la cotation minimale d'un ou de  plusieu,0,0
9916,complement a la cotation minimale de  valeur b 1 (sang). la cotation minimale d'un ou de  plusieur,0,0
9917,complement a la cotation minimale de valeur b 2 (sang). la cotation minimale d'un ou de plusieurs,0,0
9918,complement a la cotation minimale de  valeur b 3 (sang). la cotation minimale d'un ou de  plusieur,0,0
9919,complement a la cotation minimale de  valeur b 4 (sang). la cotation minimale d'un ou de  plusieur,0,0
9920,complement a la cotation minimale de  valeur b 6 (sang). la cotation minimale d'un ou de  plusieur,0,0
9921,complement a la cotation minimale de  valeur b 7 (sang). la cotation minimale d'un ou de  plusieur,0,0
9922,complement a la cotation minimale de  valeur b 8 (sang). la cotation minimale d'un ou de  plusieur,0,0
9923,complement a la cotation minimale de  valeur b 9 (sang). la cotation minimale d'un ou de  plusieur,0,0
9924,complement a la cotation minimale de  valeur b 11 (sang). la cotation minimale d'un ou de  plusieu,0,0
9925,complement a la cotation minimale de  valeur b 12 (sang). la cotation minimale d'un ou de  plusieu,0,0
9926,complement a la cotation minimale de  valeur b 13 (sang). la cotation minimale d'un ou de  plusieu,0,0
0,acte de biologie non codifie,-1,-1
9999,acte de biologie errone,-1,-1
4064,dpn : cytomegalovirus (cmv) : culture,0,0
4065,dpn : recherche de l'adn du cytomegalovirus (cmv),0,0
4066,dpn : recherche de l'adn du virus de la varicelle,0,0
4067,dpn : rubeole : culture,0,0
4068,dpn : rubeole : interferon,0,0
4069,dpn : recherche de l'arn du virus de la rubeole,0,0
4070,dpn : recherche de l'adn du parvovirus,0,0
4075,dpn : deficit immunologique (adenosine deaminase),0,0
4076,dpn : alloimmunisation foeto-maternelle,0,0
4077,dpn : alloanticorps responsable anemie ou thrombopenie,0,0
4080,dpn : et. familiale : hemophilies,0,0
4081,dpn proprement dit : hemophilies,0,0
4082,dpn : et. familiale : autres affections genetiques,0,0
4083,dpn proprement dit : autres infections genetiques,0,0
4084,determination prenatale du sexe f tal a partir du  sang maternel. les indications de cet examen sont,0,0
4085,determination prenatale du genotype rhd f tal a partir du sang  maternel  par pcr en temps reel uti,0,0
4086,seconde determination prenatale du genotype rhd  f tal a  partir du sang maternel il ne peut etre co,0,0
4087,depistage de la trisomie 21 f tale par  analyse de  l'adn libre circulant dans le  sang maternel  da,0,0
4088,dpni-second depistage de la trisomie 21  f tale par  analyse de l'adn libre  circulant dans le sang,0,0
4095,"dpn : deficit congenital en facteur de l'hemostase (viii , ix , w, prot c, s..)",0,0
4096,dpn : anomalie des plaquettes (glanzmann ...),0,0
4097,dpn : purpura thrombopenique idiopathique (pti),0,0
4101,genome (adn) : mycobacteries hybrid molec : diag d'espece et ident,0,0
4102,genome (adn) : mycobacteries hybrid molec dans tissus et lcr,0,0
4103,test de detection de la production d'interferon  gamma (igra)  la prise en charge est limitee aux si,0,0
4104,igra : supplement en cas d'isolement prealable de  cellules  mononuclees circulantes la prise en cha,0,0
4117,mesure des concentrations plasmatiques des antiretroviraux,0,0
4118,virus de l'hepatite delta (vhd) : detection  qualitative de l'arn viral,0,0
4119,detection-quantification de l'arn du vhd la prise en charge de l'acte 4119 est limitee aux  indicat,0,0
4120,detection-quantification de l'adn du vhb la prise en charge de l'acte 4120 est limitee aux  indicat,0,0
4122,genome (arn) vih - 1 : charge virale,0,0
4123,virus de l'hepatite c (vhc) : detection qualitative   de l'arn viral,0,0
4124,detection-quantification de l'arn du vhc les indications sont limitees aux situations  suivantes :,0,0
4125,genotypage du vhc par biologie  moleculaire,0,0
4126,pas d'in,0,0
4127,papillomavirus humains (hpv) oncogenes : detection du   genome  viral (adn). par hybridation molecul,0,0
4128,detection qualitative et quantitative de l'arn vih-1 dans le plasma seminal et/ou la fraction final,0,0
4201,cno : cultures cellulaires de virus non orientees,0,0
4202,cno : identification virale par 1 a 2 serums,0,0
4203,cno : identification virale par 3 a 7 serums,0,0
4204,cno : identification virale par + de 7 serums,0,0
4205,adenovirus : recherche directe sur selles par agg,0,0
4206,adenovirus : recherche directe sur selles par eia,0,0
4207,adenovirus : recherche directe sur liquides autres que selles par if,0,0
4208,adenovirus : cultures orientees et identification,0,0
4209,adenovirus : mise en evidence sur selles par me,0,0
4210,arbovirus : isolement sur animal,0,0
4211,arbovirus : cultures orientees et identification,0,0
4212,arenavirus : recherche directe par if,0,0
4213,arenavirus : recherche directe par eia,0,0
4214,arenavirus : cultures orientees et identification,0,0
4215,arenavirus : isolement sur souriceaux,0,0
4216,virus des fievres hemorragiques : cultures,0,0
4217,astrovirus : recherche directe par mie,0,0
4218,astrovirus : recherche directe par eia,0,0
4219,astrovirus : cultures orientees et identification,0,0
4223,coronavirus : recherche directe par me,0,0
4220,calicivirus : recherche directe par mie,0,0
4221,calicivirus : recherche directe par eia,0,0
4222,coronavirus : recherche directe par if,0,0
4224,herpetoviridae : recherche par me(urgence),0,0
4225,cytomegalovirus  (cmv) : recherche directe par if,0,0
4226,cytomegalovirus  (cmv) : antigenemie leucocytaire par  if,0,0
4227,cytomegalovirus (cmv) : cultures orientees et  identification,0,0
4228,virus de l'herpes simplex (vhs) : recherche directe  par if,0,0
4229,virus de l'herpes simplex (vhs) : recherche directe  par eia,0,0
4230,virus de l'herpes simplex (vhs) : cultures orientees  et identification,0,0
4232,virus de varicelle et zona : recherche directe par if,0,0
4233,virus de varicelle et zona : recherche directe par  eia,0,0
4234,virus de varicelle et zona : cultures orientees et  identification,0,0
4235,poliovirus : cultures cellulaires,0,0
4236,virus coxsackie a : cultures cellulaires,0,0
4237,virus coxsackie a : isolement sur souriceaux,0,0
4238,virus coxsackie b : cultures cellulaires,0,0
4239,echovirus : cultures cellulaires,0,0
4240,virus grippaux (a et b) : recherche directe par if,0,0
4241,virus grippaux (a et b) : recherche directe par eia,0,0
4242,virus grippaux (a et b) : cultures orientees et identification,0,0
4243,"virus parainfluenzae (i, ii, iii, iv) : recherche directe par if",0,0
4244,"virus parainfluenzae (i, ii, iii, iv) : recherche directe par eia",0,0
4245,"virus parainfluenzae (i, ii, iii, iv) : cultures orientees et identification",0,0
4246,virus respiratoire syncytial (vrs) : recherche directe par if,0,0
4247,virus respiratoire syncytial (vrs) : recherche directe par eia,0,0
4248,virus respiratoire syncytial (vrs) : cultures orientees et identification,0,0
4250,virus ourlien (oreillons) : recherche directe par if,0,0
4251,virus ourlien (oreillons) : recherche directe par eia,0,0
4252,virus ourlien :(oreillons) : cultures orientees et identification,0,0
4253,parvovirus b 19 : recherche dans serum par me,0,0
4254,polyomavirus : diagnostic direct par if,0,0
4255,polyomavirus : cultures orientees et identification,0,0
4256,poxvirus : recherche par me,0,0
4257,poxvirus : recherche par mie,0,0
4258,vih : cultures sur lymphocytes,0,0
4259,virus de la rage : recherche directe par if,0,0
4260,virus de la rage : recherche directe par eia,0,0
4261,virus de la rage : cultures orientees et identification,0,0
4262,virus de la rougeole : recherche directe par if,0,0
4263,virus de la rougeole : recherche directe par eia,0,0
4264,virus de la rougeole : cultures orientees et identification,0,0
4265,virus de la rubeole : cultures orientees et identification,0,0
4266,rotavirus : recherche directe par agg,0,0
4267,rotavirus : recherche directe par eia,0,0
4268,rotavirus : recherche par me,0,0
4270,virus de l'herpes 6 (vhh6) ou de l'herpes 7  (vhh7):cultures sur lymphocytes,0,0
4271,retrovirus autre que le vih : cultures orientees et identification,0,0
